<?xml version="1.0" encoding="utf-8"?>
<!-- Generator: Adobe Illustrator 22.1.0, SVG Export Plug-In . SVG Version: 6.00 Build 0)  -->
<svg version="1.1" id="Layer_1" xmlns="http://www.w3.org/2000/svg" xmlns:xlink="http://www.w3.org/1999/xlink" x="0px" y="0px"
	 viewBox="0 0 360 360" style="enable-background:new 0 0 360 360;" xml:space="preserve">
<style type="text/css">
	.st0{opacity:0.2;}
	.st1{fill:#FFFFFF;}
</style>
<g>
	<path class="st0" d="M225,134.4h-87.9c-11.6,0-21,9.4-21,21v49.8c0,11.6,9.4,21,21,21H225c11.6,0,21-9.4,21-21v-49.8
		C246,143.8,236.6,134.4,225,134.4z"/>
	<path class="st1" d="M223.5,217.7h-84.9c-7.7,0-14-6.3-14-14V157c0-7.7,6.3-14,14-14h84.9c7.7,0,14,6.3,14,14v46.7
		C237.5,211.4,231.2,217.7,223.5,217.7z"/>
	<path class="st0" d="M60.1,141.3l29.3,0c2,0.1,12.1,0.1,20.2-7.7c3.7-3.5,8-9.8,8-19.8V85c0-4.1-3.4-7.5-7.5-7.5h-20
		c-4.1,0-7.5,3.3-7.5,7.5l0,21.3H60.1c-4.1,0-7.5,3.4-7.5,7.5v20c0,2,0.8,3.9,2.2,5.3S58.1,141.3,60.1,141.3z"/>
	<path class="st1" d="M104.4,128.2c2.6-2.5,5.7-7.1,5.7-14.4V85h-20L90,113.8H60.1v20l29.7,0C91.2,133.8,98.7,133.7,104.4,128.2z"/>
	<path class="st0" d="M251.5,133.9c3.5,3.7,9.9,8,19.8,8h28.8c4.1,0,7.5-3.4,7.5-7.5v-20c0-4.1-3.3-7.5-7.5-7.5l-21.3,0V84.4
		c0-4.1-3.4-7.5-7.5-7.5h-20c-4.1,0-7.5,3.4-7.5,7.5v29.5C243.8,116.6,244.1,126.2,251.5,133.9z"/>
	<path class="st1" d="M271.4,84.4h-20l0,29.7c0,1.4,0,8.9,5.6,14.6c2.5,2.6,7.1,5.7,14.4,5.7h28.8v-20l-28.8-0.1V84.4z"/>
	<path class="st0" d="M250.1,281.9h20c4.1,0,7.5-3.3,7.5-7.5l0-21.3h22.5c4.1,0,7.5-3.4,7.5-7.5v-20c0-2-0.8-3.9-2.2-5.3
		s-3.3-2.2-5.3-2.2H270c-3.4,0-12.3,0.7-19.4,7.7c-3.7,3.5-8,9.8-8,19.8v28.8C242.6,278.5,246,281.9,250.1,281.9z"/>
	<path class="st1" d="M270.2,245.6h29.9v-20l-29.7,0c-0.1,0-0.2,0-0.4,0c-2.1,0-8.9,0.4-14.2,5.6c-2.6,2.5-5.7,7.1-5.7,14.4v28.8h20
		L270.2,245.6z"/>
	<path class="st0" d="M60.1,252.5l21.3,0V275c0,4.1,3.4,7.5,7.5,7.5h20c4.1,0,7.5-3.4,7.5-7.5v-29.5c0.1-2.8-0.3-12.4-7.7-20
		c-3.5-3.7-9.9-8-19.8-8H60.1c-4.1,0-7.5,3.4-7.5,7.5v20C52.6,249.2,55.9,252.5,60.1,252.5z"/>
	<path class="st1" d="M88.8,275h20l0-29.7c0-1.4,0-8.9-5.6-14.6c-2.5-2.6-7.1-5.7-14.4-5.7H60.1v20l28.8,0.1V275z"/>
</g>
</svg>
