<?xml version="1.0" encoding="utf-8"?>
<!-- Generator: Adobe Illustrator 22.1.0, SVG Export Plug-In . SVG Version: 6.00 Build 0)  -->
<svg version="1.1" id="Layer_1" xmlns="http://www.w3.org/2000/svg" xmlns:xlink="http://www.w3.org/1999/xlink" x="0px" y="0px"
	 viewBox="0 0 360 360" style="enable-background:new 0 0 360 360;" xml:space="preserve">
<style type="text/css">
	.st0{opacity:0.2;}
	.st1{fill:#FFFFFF;stroke:#FFFFFF;stroke-width:0.4;stroke-linecap:round;stroke-linejoin:round;stroke-miterlimit:10;}
	.st2{fill:#FFFFFF;}
</style>
<g>
	<path class="st0" d="M275.9,305.5H83c-7.7,0-14-6.3-14-14l0,0c0-7.7,6.3-14,14-14h192.9c7.7,0,14,6.3,14,14l0,0
		C289.9,299.2,283.6,305.5,275.9,305.5z"/>
	<g>
		<path class="st1" d="M130,201.4h-10.4v-69.2l-20.9,7.7v-9.4l29.8-11.2h1.6V201.4z"/>
		<path class="st1" d="M194.4,166.6c0,12.2-2.1,21.2-6.2,27.1c-4.2,5.9-10.6,8.9-19.5,8.9c-8.7,0-15.2-2.9-19.4-8.7
			c-4.2-5.8-6.4-14.4-6.5-25.9v-13.9c0-12,2.1-20.9,6.2-26.8c4.2-5.8,10.7-8.8,19.6-8.8c8.8,0,15.3,2.8,19.4,8.5s6.3,14.3,6.4,26.1
			V166.6z M184,152.4c0-8.8-1.2-15.2-3.7-19.2s-6.4-6-11.7-6c-5.3,0-9.2,2-11.6,6c-2.4,4-3.7,10.2-3.8,18.5v16.6
			c0,8.8,1.3,15.4,3.8,19.6c2.6,4.2,6.4,6.3,11.7,6.3c5.1,0,8.9-2,11.4-6c2.5-4,3.8-10.2,3.9-18.8V152.4z"/>
		<path class="st1" d="M253.3,166.6c0,12.2-2.1,21.2-6.2,27.1c-4.2,5.9-10.7,8.9-19.5,8.9c-8.7,0-15.2-2.9-19.4-8.7
			c-4.2-5.8-6.4-14.4-6.5-25.9v-13.9c0-12,2.1-20.9,6.2-26.8c4.2-5.8,10.7-8.8,19.5-8.8c8.8,0,15.3,2.8,19.4,8.5s6.3,14.3,6.4,26.1
			V166.6z M242.9,152.4c0-8.8-1.2-15.2-3.7-19.2s-6.4-6-11.7-6c-5.3,0-9.2,2-11.6,6c-2.4,4-3.7,10.2-3.8,18.5v16.6
			c0,8.8,1.3,15.4,3.8,19.6c2.6,4.2,6.4,6.3,11.7,6.3c5.1,0,8.9-2,11.4-6c2.5-4,3.8-10.2,3.9-18.8V152.4z"/>
	</g>
	<rect x="124.2" y="277.5" class="st2" width="55.2" height="27.9"/>
	<path class="st0" d="M271.9,59H90.3c-20.3,0-36.9,16.5-36.9,36.9v131.3c0,20.3,16.5,36.9,36.9,36.9h181.7
		c20.3,0,36.9-16.5,36.9-36.9V95.9C308.8,75.5,292.3,59,271.9,59z M273,98.4v126.3c0,2.1-1.8,4-4,4H93.2c-2.1,0-4-1.8-4-4V98.4
		c0-2.1,1.8-4,4-4H269C271.2,94.4,273,96.2,273,98.4z"/>
	<path class="st2" d="M271.9,66.5H90.3c-16.2,0-29.4,13.2-29.4,29.4v131.3c0,16.2,13.2,29.4,29.4,29.4h181.7
		c16.2,0,29.4-13.2,29.4-29.4V95.9C301.3,79.7,288.1,66.5,271.9,66.5z M280.5,224.6c0,6.3-5.2,11.5-11.5,11.5H93.2
		c-6.3,0-11.5-5.2-11.5-11.5V98.4c0-6.3,5.2-11.5,11.5-11.5H269c6.3,0,11.5,5.2,11.5,11.5V224.6z"/>
</g>
</svg>
